event;round;nbHeat;idLen;idStyle;abCat;date;time
1;2;1;4;0;"G89";"15/02/2019";""
2;2;3;4;0;"B89";"15/02/2019";""
3;2;3;0;3;"G89";"15/02/2019";""
4;2;7;0;3;"B89";"15/02/2019";""
5;2;2;1;2;"G89";"15/02/2019";""
6;2;7;1;2;"B89";"15/02/2019";""
7;2;2;2;1;"G89";"15/02/2019";""
8;2;3;2;1;"B89";"15/02/2019";""
9;2;3;8;;"R100-319";"15/02/2019";""
11;2;3;0;1;"G89";"15/02/2019";""
12;2;6;0;1;"B89";"15/02/2019";""
13;2;2;2;2;"G89";"15/02/2019";""
14;2;3;2;2;"B89";"15/02/2019";""
15;2;4;1;0;"G89";"15/02/2019";""
16;2;9;1;0;"B89";"15/02/2019";""
17;2;1;2;3;"G89";"15/02/2019";""
18;2;1;2;3;"B89";"15/02/2019";""
19;2;3;1;4;"G89";"15/02/2019";""
20;2;8;1;4;"B89";"15/02/2019";""
21;2;3;8;;"R100-319";"15/02/2019";""
23;2;3;0;2;"G89";"16/02/2019";""
24;2;6;0;2;"B89";"16/02/2019";""
25;2;1;1;3;"G89";"16/02/2019";""
26;2;3;1;3;"B89";"16/02/2019";""
27;2;3;2;0;"G89";"16/02/2019";""
28;2;6;2;0;"B89";"16/02/2019";""
29;2;1;3;4;"G89";"16/02/2019";""
30;2;2;3;4;"B89";"16/02/2019";""
31;2;2;8;4;"R100-319";"16/02/2019";""
32;2;3;8;4;"R100-319";"16/02/2019";""
33;2;4;0;0;"G89";"16/02/2019";""
34;2;8;0;0;"B89";"16/02/2019";""
35;2;2;2;4;"G89";"16/02/2019";""
36;2;3;2;4;"B89";"16/02/2019";""
37;2;2;1;1;"G89";"16/02/2019";""
38;2;4;1;1;"B89";"16/02/2019";""
39;2;2;3;0;"G89";"16/02/2019";""
40;2;4;3;0;"B89";"16/02/2019";""
41;2;2;8;0;"R100-319";"16/02/2019";""
42;2;3;8;0;"R100-319";"16/02/2019";""